n,with_mpi,ex_time
100000,0,0.000826
110000,0,0.000896
120000,0,0.000978
130000,0,0.001060
140000,0,0.001161
150000,0,0.001244
160000,0,0.001306
170000,0,0.001388
180000,0,0.001471
190000,0,0.001561
200000,0,0.001653
100000,1,0.006335
110000,1,0.017337
120000,1,0.006757
130000,1,0.010953
140000,1,0.011673
150000,1,0.008686
160000,1,0.009066
170000,1,0.009122
180000,1,0.009743
190000,1,0.009979
200000,1,0.010796
